…
``` r
incident_data %>% filter(is.na(start)) %>% mutate(reported = year(start)) %>% count(start) %>% arrange(start) %>% kable(caption = "Number of Uncategorized Incidents Reported by UCPD by Year") 
```

| start |  n |
| :---- | -: |
| NA    | 57 |

Number of Uncategorized Incidents Reported by UCPD by Year

``` r
incident_data %>% filter(is.na(start))
```

    ## # A tibble: 57 x 23
    ##    incident location building reported            occurred comments disposition
    ##    <chr>    <chr>    <chr>    <dttm>              <chr>    <chr>    <chr>      
    ##  1 damage ~ 6031 s.~ south c~ 2010-07-21 14:13:00 7/1910 ~ Window ~ Closed     
    ##  2 damage ~ ellis b~ <NA>     2010-10-03 13:05:00 Unknown  Complai~ Open       
    ##  3 <NA>     univers~ <NA>     2010-10-26 09:02:00 Unknown  Copper ~ Closed     
    ##  4 damage ~ 5706 s.~ reynold~ 2012-03-04 08:50:00 3/3/112~ Unknown~ Open       
    ##  5 lost pr~ 901 e. ~ mitchel~ 2012-03-09 01:57:00 3/8/112~ Patient~ Closed     
    ##  6 traffic~ 60th & ~ <NA>     2012-06-06 10:43:00 6/6/112~ UCPD of~ Arrest     
    ##  7 theft    935 e. ~ bike ra~ 2012-06-15 09:20:00 6/14/11~ Unknown~ Open       
    ##  8 traffic~ 57th be~ <NA>     2012-07-07 11:07:00 7/7/121~ UCPD of~ Arrest     
    ##  9 theft    53rd be~ <NA>     2012-07-08 19:06:00 7/8/112~ Unknown~ Open       
    ## 10 traffic~ 6300 s.~ <NA>     2012-08-14 10:33:00 8/14/12~ UCPD of~ Arrest     
    ## # ... with 47 more rows, and 16 more variables: `ucpdi#` <chr>, start <dttm>,
    ## #   end <dttm>, in_jurisdiction <lgl>, information <lgl>,
    ## #   assist_other_agency <lgl>, non_criminal <lgl>, attempted <lgl>,
    ## #   warrant <lgl>, armed <lgl>, aggravated <lgl>, domestic <lgl>,
    ## #   cpd_case_id <chr>, arrest <lgl>, lat <dbl>, lon <dbl>
…
